<?xml version="1.0" encoding="UTF-8" standalone="no"?>
<!-- Created with Inkscape (http://www.inkscape.org/) -->

<svg
   width="210mm"
   height="297mm"
   viewBox="0 0 210 297"
   version="1.1"
   id="svg183"
   sodipodi:docname="Ich komme aus der Zukunft - Inkscape V3.svg"
   inkscape:version="1.1.2 (0a00cf5339, 2022-02-04)"
   xmlns:inkscape="http://www.inkscape.org/namespaces/inkscape"
   xmlns:sodipodi="http://sodipodi.sourceforge.net/DTD/sodipodi-0.dtd"
   xmlns="http://www.w3.org/2000/svg"
   xmlns:svg="http://www.w3.org/2000/svg">
  <sodipodi:namedview
     id="namedview185"
     pagecolor="#ffffff"
     bordercolor="#666666"
     borderopacity="1.0"
     inkscape:pageshadow="2"
     inkscape:pageopacity="0"
     inkscape:pagecheckerboard="0"
     inkscape:document-units="mm"
     showgrid="false"
     inkscape:zoom="1.0998546"
     inkscape:cx="178.20537"
     inkscape:cy="332.31665"
     inkscape:window-width="1846"
     inkscape:window-height="1136"
     inkscape:window-x="0"
     inkscape:window-y="0"
     inkscape:window-maximized="1"
     inkscape:current-layer="layer1" />
  <defs
     id="defs180">
    <linearGradient
       id="linearGradient281482"
       inkscape:swatch="solid">
      <stop
         style="stop-color:#f5f5f5;stop-opacity:1;"
         offset="0"
         id="stop281480" />
    </linearGradient>
    <rect
       x="46.093585"
       y="37.725718"
       width="719.21463"
       height="122.10756"
       id="rect3137" />
    <rect
       x="46.093586"
       y="37.725719"
       width="764.5504"
       height="171.75629"
       id="rect3137-5" />
    <rect
       x="46.093586"
       y="37.725719"
       width="768.07571"
       height="198.85486"
       id="rect3137-2" />
    <rect
       x="46.093586"
       y="37.725719"
       width="849.03342"
       height="258.56941"
       id="rect3137-8" />
    <rect
       x="46.093586"
       y="37.725719"
       width="863.17104"
       height="197.93068"
       id="rect3137-3" />
    <rect
       x="46.093586"
       y="37.725719"
       width="719.2146"
       height="122.10756"
       id="rect3137-1" />
    <rect
       x="46.093586"
       y="37.725719"
       width="719.2146"
       height="122.10756"
       id="rect3137-31" />
    <rect
       x="46.093586"
       y="37.725719"
       width="719.2146"
       height="122.10756"
       id="rect3137-7" />
    <rect
       x="46.093586"
       y="37.725719"
       width="930.87241"
       height="91.880777"
       id="rect3137-4" />
    <rect
       x="46.093586"
       y="37.725719"
       width="734.34306"
       height="144.94591"
       id="rect3137-0" />
  </defs>
  <g
     inkscape:label="Ebene 1"
     inkscape:groupmode="layer"
     id="layer1">
    <text
       xml:space="preserve"
       transform="matrix(0.20573989,0,0,0.26458333,-10.084908,-13.040462)"
       id="text3135"
       style="font-style:normal;font-weight:normal;font-size:106.667px;line-height:1.25;font-family:sans-serif;letter-spacing:0px;word-spacing:0px;white-space:pre;shape-inside:url(#rect3137);fill:#000000;fill-opacity:1;stroke:none"><tspan
         x="46.09375"
         y="132.10186"
         id="tspan437977"><tspan
           style="font-weight:bold;font-family:'Bitstream Vera Sans';-inkscape-font-specification:'Bitstream Vera Sans Bold'"
           id="tspan437975">ICH KOMME</tspan></tspan></text>
    <text
       xml:space="preserve"
       style="font-style:normal;font-weight:normal;font-size:10.5833px;line-height:1.25;font-family:sans-serif;letter-spacing:0px;word-spacing:0px;fill:#000000;fill-opacity:1;stroke:none;stroke-width:0.264583"
       x="40.120407"
       y="68.875801"
       id="text167749"><tspan
         sodipodi:role="line"
         id="tspan167747"
         style="stroke-width:0.264583;fill:#000000;fill-opacity:1"></tspan></text>
    <text
       xml:space="preserve"
       transform="matrix(0.21508356,0,0,0.25781861,-8.8012673,9.3553816)"
       id="text3135-9"
       style="font-style:normal;font-weight:normal;font-size:133.333px;line-height:1.25;font-family:sans-serif;letter-spacing:0px;word-spacing:0px;white-space:pre;shape-inside:url(#rect3137-5);fill:#000000;fill-opacity:1;stroke:none"><tspan
         x="46.09375"
         y="155.69501"
         id="tspan437981"><tspan
           style="font-weight:bold;font-family:'Bitstream Vera Sans';-inkscape-font-specification:'Bitstream Vera Sans Bold'"
           id="tspan437979">AUS DER</tspan></tspan></text>
    <text
       xml:space="preserve"
       transform="matrix(0.20296418,0,0,0.26458333,-8.9656627,133.78796)"
       id="text3135-2"
       style="font-style:normal;font-weight:normal;font-size:133.333px;line-height:1.25;font-family:sans-serif;letter-spacing:0px;word-spacing:0px;white-space:pre;shape-inside:url(#rect3137-2);fill:#000000;fill-opacity:1;stroke:none"><tspan
         x="46.09375"
         y="155.69501"
         id="tspan437985"><tspan
           style="font-weight:bold;font-family:'Bitstream Vera Sans';-inkscape-font-specification:'Bitstream Vera Sans Bold'"
           id="tspan437983">ICH EUCH</tspan></tspan></text>
    <text
       xml:space="preserve"
       transform="matrix(0.20715199,0,0,0.26458333,-12.255583,85.489747)"
       id="text3135-97"
       style="font-style:normal;font-weight:normal;font-size:213.333px;line-height:1.25;font-family:sans-serif;letter-spacing:0px;word-spacing:0px;white-space:pre;shape-inside:url(#rect3137-8);fill:#000000;fill-opacity:1;stroke:none"><tspan
         x="46.09375"
         y="226.47626"
         id="tspan437989"><tspan
           style="font-weight:bold;font-family:'Bitstream Vera Sans';-inkscape-font-specification:'Bitstream Vera Sans Bold'"
           id="tspan437987">NEHM</tspan></tspan></text>
    <text
       xml:space="preserve"
       transform="matrix(0.19795637,0,0,0.26458333,-8.305072,163.48461)"
       id="text3135-6"
       style="font-style:normal;font-weight:normal;font-size:120px;line-height:1.25;font-family:sans-serif;letter-spacing:0px;word-spacing:0px;white-space:pre;shape-inside:url(#rect3137-3);fill:#000000;fill-opacity:1;stroke:none"><tspan
         x="46.09375"
         y="143.89844"
         id="tspan437993"><tspan
           style="font-weight:bold;font-family:'Bitstream Vera Sans';-inkscape-font-specification:'Bitstream Vera Sans Bold'"
           id="tspan437991">NICHT MIT.</tspan></tspan></text>
    <text
       xml:space="preserve"
       transform="matrix(0.34636051,0,0,0.26458333,-15.210749,80.059008)"
       id="text3135-8"
       style="font-style:normal;font-weight:normal;font-size:48px;line-height:1.25;font-family:sans-serif;letter-spacing:0px;word-spacing:0px;white-space:pre;shape-inside:url(#rect3137-7);fill:#000000;fill-opacity:1;stroke:none"><tspan
         x="46.09375"
         y="80.195312"
         id="tspan437997"><tspan
           style="font-weight:bold;font-family:'Bitstream Vera Sans';-inkscape-font-specification:'Bitstream Vera Sans Bold'"
           id="tspan437995">WEITERMACHT,</tspan></tspan></text>
    <text
       xml:space="preserve"
       transform="matrix(0.28872161,0,0,0.26458333,-13.174502,68.201436)"
       id="text3135-5"
       style="font-style:normal;font-weight:normal;font-size:46.6667px;line-height:1.25;font-family:sans-serif;letter-spacing:0px;word-spacing:0px;white-space:pre;shape-inside:url(#rect3137-4);fill:#000000;fill-opacity:1;stroke:none"><tspan
         x="46.09375"
         y="79.015653"
         id="tspan438001"><tspan
           style="font-weight:bold;font-family:'Bitstream Vera Sans';-inkscape-font-specification:'Bitstream Vera Sans Bold'"
           id="tspan437999">UND WENN IHR SO</tspan></tspan></text>
    <text
       xml:space="preserve"
       transform="matrix(0.22187142,0,0,0.29154621,-10.083621,35.378559)"
       id="text3135-3"
       style="font-style:normal;font-weight:normal;font-size:120px;line-height:1.25;font-family:sans-serif;letter-spacing:0px;word-spacing:0px;white-space:pre;shape-inside:url(#rect3137-0);fill:#000000;fill-opacity:1;stroke:none"><tspan
         x="46.09375"
         y="143.89844"
         id="tspan438005"><tspan
           style="font-weight:bold;font-family:'Bitstream Vera Sans';-inkscape-font-specification:'Bitstream Vera Sans Bold'"
           id="tspan438003">ZUKUNFT</tspan></tspan></text>
  </g>
</svg>
